<svg width="512" height="800" viewBox="0 0 512 800" fill="none" xmlns="http://www.w3.org/2000/svg">
<g clip-path="url(#clip0_7_56)">
<ellipse cx="299.791" cy="50" rx="7.5" ry="7" fill="#D9D9D9"/>
<circle cx="299.791" cy="161.5" r="7.5" fill="#D9D9D9"/>
<circle cx="292.291" cy="186" r="5" fill="#D9D9D9"/>
<ellipse cx="379.291" cy="244.5" rx="8" ry="7.5" fill="#D9D9D9"/>
<ellipse cx="472.791" cy="257" rx="7.5" ry="7" fill="#D9D9D9"/>
<circle cx="160.291" cy="164" r="7" fill="#D9D9D9"/>
<ellipse cx="52.7911" cy="210" rx="7.5" ry="7" fill="#D9D9D9"/>
<circle cx="50.2911" cy="329" r="8" fill="#D9D9D9"/>
<circle cx="140.291" cy="448" r="7" fill="#D9D9D9"/>
<ellipse cx="183.791" cy="462" rx="7.5" ry="7" fill="#D9D9D9"/>
<ellipse cx="250.291" cy="395.5" rx="8" ry="7.5" fill="#D9D9D9"/>
<circle cx="350.791" cy="306.5" r="7.5" fill="#D9D9D9"/>
<circle cx="364.791" cy="367.5" r="6.5" fill="#D9D9D9"/>
<ellipse cx="350.791" cy="458" rx="7.5" ry="7" fill="#D9D9D9"/>
</g>
<defs>
<clipPath id="clip0_7_56">
<rect width="475.709" height="766.707" fill="white" transform="translate(36.2911)"/>
</clipPath>
</defs>
</svg>
